[
  {
    "description": "As a user of the company\nI want to Login\nAnd I can access the account functions",
    "keyword": "Feature",
    "name": "Login Function",
    "line": 1,
    "id": "login-function",
    "tags": [],
    "uri": "test/features/login.feature",
    "elements": [
      {
        "id": "login-function;checking-the-login-page-contents",
        "keyword": "Scenario",
        "line": 7,
        "name": "Checking the Login page contents",
        "tags": [],
        "type": "scenario",
        "steps": [
          {
            "arguments": [],
            "keyword": "Given ",
            "line": 9,
            "name": "I am on the Login page",
            "result": {
              "status": "undefined"
            }
          },
          {
            "arguments": [],
            "keyword": "Then ",
            "line": 10,
            "name": "the page contains a logo at the top",
            "result": {
              "status": "undefined"
            }
          },
          {
            "arguments": [],
            "keyword": "And ",
            "line": 11,
            "name": "the page contains a header",
            "result": {
              "status": "undefined"
            }
          },
          {
            "arguments": [],
            "keyword": "And ",
            "line": 12,
            "name": "the page contains two form widgets",
            "result": {
              "status": "undefined"
            }
          }
        ]
      },
      {
        "id": "login-function;checking-the-login-form-contents",
        "keyword": "Scenario",
        "line": 14,
        "name": "Checking the login form contents",
        "tags": [],
        "type": "scenario",
        "steps": [
          {
            "arguments": [],
            "keyword": "Given ",
            "line": 16,
            "name": "I am on the Login page",
            "result": {
              "status": "undefined"
            }
          },
          {
            "arguments": [],
            "keyword": "And ",
            "line": 17,
            "name": "the Login form exists",
            "result": {
              "status": "undefined"
            }
          },
          {
            "arguments": [],
            "keyword": "And ",
            "line": 18,
            "name": "the form contains a header and text",
            "result": {
              "status": "undefined"
            }
          },
          {
            "arguments": [],
            "keyword": "And ",
            "line": 19,
            "name": "the form contains the fields Email address, password or pin and submit button",
            "result": {
              "status": "undefined"
            }
          },
          {
            "arguments": [],
            "keyword": "And ",
            "line": 20,
            "name": "the form contains links at bottom",
            "result": {
              "status": "undefined"
            }
          }
        ]
      },
      {
        "id": "login-function;login",
        "keyword": "Scenario",
        "line": 30,
        "name": "Login",
        "tags": [],
        "type": "scenario",
        "steps": [
          {
            "arguments": [],
            "keyword": "Given ",
            "line": 24,
            "name": "the Login form exists",
            "result": {
              "status": "undefined"
            }
          },
          {
            "arguments": [],
            "keyword": "When ",
            "line": 25,
            "name": "the user logs in using Username as \"ginu@toobler.com\" and Password as \"Pass123#1\"",
            "result": {
              "status": "undefined"
            }
          },
          {
            "arguments": [],
            "keyword": "Then ",
            "line": 26,
            "name": "either Login is successful or fails",
            "result": {
              "status": "undefined"
            }
          }
        ]
      },
      {
        "id": "login-function;login",
        "keyword": "Scenario",
        "line": 31,
        "name": "Login",
        "tags": [],
        "type": "scenario",
        "steps": [
          {
            "arguments": [],
            "keyword": "Given ",
            "line": 24,
            "name": "the Login form exists",
            "result": {
              "status": "undefined"
            }
          },
          {
            "arguments": [],
            "keyword": "When ",
            "line": 25,
            "name": "the user logs in using Username as \"\" and Password as \"\"",
            "result": {
              "status": "undefined"
            }
          },
          {
            "arguments": [],
            "keyword": "Then ",
            "line": 26,
            "name": "either Login is successful or fails",
            "result": {
              "status": "undefined"
            }
          }
        ]
      },
      {
        "id": "login-function;login",
        "keyword": "Scenario",
        "line": 32,
        "name": "Login",
        "tags": [],
        "type": "scenario",
        "steps": [
          {
            "arguments": [],
            "keyword": "Given ",
            "line": 24,
            "name": "the Login form exists",
            "result": {
              "status": "undefined"
            }
          },
          {
            "arguments": [],
            "keyword": "When ",
            "line": 25,
            "name": "the user logs in using Username as \"\" and Password as \"Pass123#1\"",
            "result": {
              "status": "undefined"
            }
          },
          {
            "arguments": [],
            "keyword": "Then ",
            "line": 26,
            "name": "either Login is successful or fails",
            "result": {
              "status": "undefined"
            }
          }
        ]
      },
      {
        "id": "login-function;login",
        "keyword": "Scenario",
        "line": 33,
        "name": "Login",
        "tags": [],
        "type": "scenario",
        "steps": [
          {
            "arguments": [],
            "keyword": "Given ",
            "line": 24,
            "name": "the Login form exists",
            "result": {
              "status": "undefined"
            }
          },
          {
            "arguments": [],
            "keyword": "When ",
            "line": 25,
            "name": "the user logs in using Username as \"ginu@toobler.com\" and Password as \"\"",
            "result": {
              "status": "undefined"
            }
          },
          {
            "arguments": [],
            "keyword": "Then ",
            "line": 26,
            "name": "either Login is successful or fails",
            "result": {
              "status": "undefined"
            }
          }
        ]
      },
      {
        "id": "login-function;login",
        "keyword": "Scenario",
        "line": 34,
        "name": "Login",
        "tags": [],
        "type": "scenario",
        "steps": [
          {
            "arguments": [],
            "keyword": "Given ",
            "line": 24,
            "name": "the Login form exists",
            "result": {
              "status": "undefined"
            }
          },
          {
            "arguments": [],
            "keyword": "When ",
            "line": 25,
            "name": "the user logs in using Username as \"ginu123@toobler.com\" and Password as \"Pass123\"",
            "result": {
              "status": "undefined"
            }
          },
          {
            "arguments": [],
            "keyword": "Then ",
            "line": 26,
            "name": "either Login is successful or fails",
            "result": {
              "status": "undefined"
            }
          }
        ]
      },
      {
        "id": "login-function;login",
        "keyword": "Scenario",
        "line": 35,
        "name": "Login",
        "tags": [],
        "type": "scenario",
        "steps": [
          {
            "arguments": [],
            "keyword": "Given ",
            "line": 24,
            "name": "the Login form exists",
            "result": {
              "status": "undefined"
            }
          },
          {
            "arguments": [],
            "keyword": "When ",
            "line": 25,
            "name": "the user logs in using Username as \"ginu\" and Password as \"\"",
            "result": {
              "status": "undefined"
            }
          },
          {
            "arguments": [],
            "keyword": "Then ",
            "line": 26,
            "name": "either Login is successful or fails",
            "result": {
              "status": "undefined"
            }
          }
        ]
      }
    ]
  }
]